AWSTATS DATA FILE 6.9 (build 1.925)
# If you remove this file, all statistics for date 201211 will be lost/reset.

# Position (offset in bytes) in this file of beginning of each section for
# direct I/O access. If you made changes somewhere in this file, you should
# also remove completely the MAP section (AWStats will rewrite it at next
# update).
BEGIN_MAP 27
POS_GENERAL 1864                
POS_TIME 2534                
POS_VISITOR 8485                
POS_DAY 14332               
POS_DOMAIN 3356                
POS_LOGIN 3591                
POS_ROBOT 3782                
POS_WORMS 4168                
POS_EMAILSENDER 4299                
POS_EMAILRECEIVER 4442                
POS_SESSION 14880               
POS_SIDER 15090               
POS_FILETYPES 4577                
POS_OS 4962                
POS_BROWSER 5080                
POS_SCREENSIZE 5482                
POS_UNKNOWNREFERER 5556                
POS_UNKNOWNREFERERBROWSER 5774                
POS_ORIGIN 5856                
POS_SEREFERRALS 6001                
POS_PAGEREFS 6169                
POS_SEARCHWORDS 7287                
POS_KEYWORDS 7705                
POS_MISC 2197                
POS_ERRORS 8058                
POS_CLUSTER 3447                
POS_SIDER_404 8176                
END_MAP

# LastLine    = Date of last record processed - Last record line number in last log - Last record offset in last log - Last record signature value
# FirstTime   = Date of first visit for history file
# LastTime    = Date of last visit for history file
# LastUpdate  = Date of last update - Nb of parsed records - Nb of parsed old records - Nb of parsed new records - Nb of parsed corrupted - Nb of parsed dropped
# TotalVisits = Number of visits
# TotalUnique = Number of unique visitors
# MonthHostsKnown   = Number of hosts known
# MonthHostsUnKnown = Number of hosts unknown
BEGIN_GENERAL 8
LastLine 20121201011422 1 0 43186334468
FirstTime 20121113231808
LastTime 20121130225312
LastUpdate 20121201043218 1 0 0 0 0
TotalVisits 163                 
TotalUnique 138                 
MonthHostsKnown 0                   
MonthHostsUnknown 140                 
END_GENERAL

# Misc ID - Pages - Hits - Bandwidth
BEGIN_MISC 10
QuickTimeSupport 0 0 0
JavaEnabled 0 0 0
JavascriptDisabled 0 0 0
PDFSupport 0 0 0
WindowsMediaPlayerSupport 0 0 0
AddToFavourites 0 43 0
RealPlayerSupport 0 0 0
TotalMisc 0 0 0
DirectorSupport 0 0 0
FlashSupport 0 0 0
END_MISC

# Hour - Pages - Hits - Bandwidth - Not viewed Pages - Not viewed Hits - Not viewed Bandwidth
BEGIN_TIME 24
0 22 62 625859 33 34 1835040
1 0 0 0 3 4 56085
2 0 0 0 64 64 265459
3 0 0 0 6 6 22900
4 0 0 0 11 12 114226
5 0 0 0 3 3 19546
6 6 32 1250482 25 44 2373903
7 48 233 14801859 33 39 1358881
8 120 452 93458305 24 25 1175271
9 114 610 42577937 8 8 46234
10 127 541 28702323 8 9 61410
11 152 582 21153857 10 12 66609
12 34 136 5219448 16 17 132267
13 77 300 50542415 11 13 140988
14 105 402 88773744 8 11 101976
15 320 1057 101037912 17 18 89984
16 153 557 121791100 15 17 173488
17 24 76 2194358 92 92 1427935
18 36 141 5367245 7 9 71123
19 153 514 63747814 10 10 50615
20 116 390 11900249 71 71 299604
21 167 636 127063797 35 36 215328
22 231 857 653724191 10 10 45543
23 87 273 9141289 20 21 151901
END_TIME

# Domain - Pages - Hits - Bandwidth
# The 10 first Pages must be first (order not required for others)
BEGIN_DOMAIN 1
ip 2092 7851 1443074184
END_DOMAIN

# Cluster ID - Pages - Hits - Bandwidth
BEGIN_CLUSTER 0
END_CLUSTER

# Login - Pages - Hits - Bandwidth - Last visit
# The 10 first Pages must be first (order not required for others)
BEGIN_LOGIN 1
pochp 63 188 1857066 20121113233230
END_LOGIN

# Robot ID - Hits - Bandwidth - Last visit - Hits on robots.txt
# The 10 first Hits must be first (order not required for others)
BEGIN_ROBOT 7
googlebot 241 8066426 20121130225216 90
yandex 208 1025373 20121130202926 28
robot 68 258766 20121129221743 26
bot[+:,\.\;\/\\-] 46 891481 20121130164404 16
slurp 3 13068 20121129073347 1
surveybot 2 16238 20121129225151 1
crawl 1 12511 20121125131116 0
END_ROBOT

# Worm ID - Hits - Bandwidth - Last visit
# The 5 first Hits must be first (order not required for others)
BEGIN_WORMS 0
END_WORMS

# EMail - Hits - Bandwidth - Last visit
# The 20 first Hits must be first (order not required for others)
BEGIN_EMAILSENDER 0
END_EMAILSENDER

# EMail - Hits - Bandwidth - Last visit
# The 20 first hits must be first (order not required for others)
BEGIN_EMAILRECEIVER 0
END_EMAILRECEIVER

# Files type - Hits - Bandwidth - Bandwidth without compression - Bandwidth after compression
BEGIN_FILETYPES 17
eot 173 7145766 0 0
css 508 1129734 0 0
png 2337 98624942 0 0
ttf 6 320081 0 0
pdf 12 3866325 0 0
htm 2 6741 0 0
woff 335 15176741 0 0
swf 1 17520 0 0
php 589 3065098 0 0
mp4 90 1234759877 0 0
html 325 1312657 0 0
js 865 7100068 0 0
xml 1 3756 0 0
jpg 902 15680328 0 0
jpeg 67 31489529 0 0
Unknown 560 2293443 0 0
gif 1078 21081578 0 0
END_FILETYPES

# OS ID - Hits
BEGIN_OS 7
macosx 1557
winxp 3261
winlong 424
win2003 11
Unknown 93
linux 85
win2008 2420
END_OS

# Browser ID - Hits
BEGIN_BROWSER 24
firefox10.0.7 26
msie6.0 35
firefox15.0 40
firefox17.0 123
firefox4.0.1 1
chrome 2555
opera 234
firefox3.0 1
firefox7.0.1 41
firefox12.0 144
msie8.0 1065
firefox13.0.1 44
netscape5.0 1
msie7.0 161
firefox3.5.8 56
firefox14.0.1 75
firefox16.0 2431
firefox3.6.28 63
firefox9.0.1 51
msie9.0 381
firefox3.0.19 62
firefox11.0 1
firefox15.0.1 53
safari 207
END_BROWSER

# Screen size - Hits
BEGIN_SCREENSIZE 0
END_SCREENSIZE

# Unknown referer OS - Last visit date
BEGIN_UNKNOWNREFERER 2
Mozilla/5.0 20121118165512
Opera/9.80_(J2ME/MIDP;_Opera_Mini/4.2.18149/28.3030;_U;_pl)_Presto/2.8.119_Version/11.10 20121115195345
END_UNKNOWNREFERER

# Unknown referer Browser - Last visit date
BEGIN_UNKNOWNREFERERBROWSER 0
END_UNKNOWNREFERERBROWSER

# Origin - Pages - Hits 
BEGIN_ORIGIN 6
From0 221 246
From1 0 0
From2 22 22
From3 85 206
From4 1764 7377
From5 0 0
END_ORIGIN

# Search engine referers ID - Pages - Hits
BEGIN_SEREFERRALS 2
google 21 21
yandex 1 1
END_SEREFERRALS

# External page referers - Pages - Hits
# The 10 first Pages must be first (order not required for others)
BEGIN_PAGEREFS 14
http://www.ptchp.org/pt/komunikaty/news/661.html 33 33
http://vjs.zencdn.net/c/video-js.swf 19 19
http://www.poznan.pl/mim/ezdrowie/news/14-listopada-obchody-swiatowego-dnia-pochp,56370.html 10 10
http://www.radiogdansk.pl/index.php/wiadomosci-wydarzenia-sport/wydarzenia-rg/38206-rusza-program-pomocy-dla-chorych-na-pochp.html 8 8
http://www.terapia.com.pl/informacje/ 6 6
http://www.radiogdansk.pl/index.php/wiadomosci-wydarzenia-sport/wydarzenia-rg/38206-pomoc-dla-chorych-na-pochp.html 4 4
http://radiogdansk.pl/index.php/wiadomosci-wydarzenia-sport/wydarzenia-rg/38206-rusza-program-pomocy-dla-chorych-na-pochp.html 2 2
http://www.nursing.com.pl/Aktualnosci_POChP_-_Nie_jest_za_pno_1457.html 1 1
http://radiogdansk.pl/index.php/wiadomosci-wydarzenia-sport/wydarzenia-rg/38206-pomoc-dla-chorych-na-pochp.html 1 1
http://pochp.net.pl 1 1
http://pochp.dev.miart.pl 0 54
http://pochp.loc/admin.php 0 21
http://pochp.loc 0 45
http://s.nsdsvc.com/App/DddWrapper.swf 0 1
END_PAGEREFS

# Search keyphrases - Number of search
# The 10 first number of search must be first (order not required for others)
BEGIN_SEARCHWORDS 11
pochp.e.u 3
www.pochp.eu 3
badowicz+katarzyna+starogard+gda%c5%84ski 1
pilotowy+program 1
anything 1
uzyskanie+uprawnie%c5%84+do+korzystania+z+rejestru+pochp 1
p.o.c.h.p 1
jakie+zyczenia+dla+osoby+przewlekle+chorej 1
pochp.eu 1
spiro+pochp 1
korzystne+efekty+dlt 1
END_SEARCHWORDS

# Search keywords - Number of search
# The 10 first number of search must be first (order not required for others)
BEGIN_KEYWORDS 28
pochp.e.u 3
www.pochp.eu 3
pochp 2
do 1
p.o.c.h.p 1
program 1
starogard 1
efekty 1
katarzyna 1
dla 1
uzyskanie 1
chorej 1
spiro 1
badowicz 1
dlt 1
osoby 1
gda%c5%84ski 1
pilotowy 1
anything 1
korzystne 1
rejestru 1
przewlekle 1
korzystania 1
zyczenia 1
uprawnie%c5%84 1
pochp.eu 1
jakie 1
z 1
END_KEYWORDS

# Errors - Hits - Bandwidth
BEGIN_ERRORS 4
401 5 4302
302 7 5607
500 3 2007
301 1 537
END_ERRORS

# URL with 404 errors - Hits - Last URL referer
BEGIN_SIDER_404 0
END_SIDER_404

# Host - Pages - Hits - Bandwidth - Last visit date - [Start date of last visit] - [Last page of last visit]
# [Start date of last visit] and [Last page of last visit] are saved only if session is not finished
# The 10 first Hits must be first (order not required for others)
BEGIN_VISITOR 140
89.77.222.140 355 1304 5841027 20121127224044
153.19.67.43 308 991 8253240 20121128155022
87.204.0.67 91 329 56606229 20121128140257
81.219.157.142 70 116 18517764 20121130201402
153.19.102.13 56 173 80792218 20121129135152
195.85.230.1 55 187 2286162 20121128161404
46.204.48.225 46 94 717010870 20121130222726
89.71.59.248 43 126 10347641 20121114192422
89.171.101.250 38 123 5145673 20121127142601
193.17.212.5 32 128 4716838 20121118114917
164.127.35.86 14 51 15606790 20121115212839
206.225.94.38 2 2 7937 20121121003450
95.24.172.89 1 23 699837 20121127093155
37.108.228.35 6 33 996387 20121120200302
195.177.210.80 7 39 1507206 20121114111040
109.173.148.38 14 63 2242277 20121117165107
213.192.67.148 5 30 1169193 20121119111858
212.49.62.71 16 98 1429378 20121116210451
89.206.3.85 4 25 859118 20121118120334
74.125.18.226 3 9 449688 20121123202211
216.38.216.101 8 16 121722 20121125095005
217.97.99.9 7 33 1211905 20121122101356
46.204.42.209 8 48 575364 20121121000438
79.184.167.114 5 36 1431774 20121121164813
79.190.220.82 25 73 2685302 20121115140812
94.75.114.15 9 47 2221010 20121115095057
193.34.0.210 10 43 2210262 20121118135459
74.125.18.214 0 1 16785 
198.28.92.5 16 50 2195527 20121114210053
74.125.18.208 0 6 226991 
31.62.4.144 1 1 543109 20121129190424
37.31.81.205 5 31 1206466 20121114202825
188.147.113.227 2 4 102586 20121114110458
87.206.49.33 14 47 1913790 20121114175527
89.231.97.70 5 31 1171434 20121119213600
178.217.39.250 13 46 17863325 20121119130857
217.173.195.154 8 46 2578497 20121114105128
79.133.195.230 4 26 860861 20121114112525
31.174.63.155 5 31 1238008 20121119063243
109.241.2.220 10 37 1822909 20121129145725
82.202.114.253 3 20 589011 20121126220558
37.30.243.46 9 40 2526196 20121114110322
83.3.197.2 17 54 9712913 20121116080218
85.193.255.23 15 48 1447971 20121121171441
83.31.123.105 1 1 543109 20121128230829
213.189.36.102 12 46 2273289 20121115085409
37.128.118.130 5 31 1246962 20121127093137
83.21.114.218 9 43 1374425 20121116131551
74.125.18.223 1 9 164278 20121123202209
94.254.192.131 5 32 1186019 20121114081731
199.19.249.196 5 5 284349 20121115120736
217.172.236.58 6 33 1243304 20121115071841
80.239.242.62 7 35 1257387 20121130224406
31.182.134.83 18 84 3001835 20121121140550
62.21.50.50 9 41 2114374 20121121092024
89.77.242.247 3 24 1437278 20121129214043
87.250.177.44 8 52 1431774 20121119095709
109.206.213.30 1 1 3987 20121130225312
87.207.101.111 13 56 21431842 20121115092846
83.24.44.3 1 26 820226 20121115093553
46.239.136.86 10 44 1395604 20121126170714
83.25.61.13 3 3 11251 20121114214222
206.225.82.122 1 1 4010 20121121003449
89.72.137.138 12 52 1823032 20121115082946
87.204.23.194 17 62 2544269 20121114114930
206.225.86.37 1 1 3090 20121121003449
83.8.32.221 4 25 859130 20121116184925
94.192.183.213 4 26 860860 20121124151655
80.55.1.54 5 27 897926 20121115092250
149.156.157.66 1 1 231385 20121125182048
85.11.77.190 5 36 2020494 20121114102641
206.225.83.217 1 1 4020 20121121003451
150.70.75.34 2 2 125582 20121114105921
204.68.97.133 1 1 12474 20121121063935
79.184.197.99 13 46 2207063 20121126232234
206.225.85.114 1 1 3039 20121121003452
216.55.169.224 1 1 2962 20121121003453
89.67.91.26 4 26 860859 20121114110709
178.252.56.235 5 34 1209544 20121115092415
83.27.179.126 26 60 32262675 20121124200459
206.225.87.154 1 1 3080 20121121003448
83.16.54.202 10 46 1524887 20121114104905
89.74.159.45 28 81 3102390 20121119112048
62.21.72.73 7 40 63181893 20121115163743
206.225.92.169 2 2 8047 20121121003450
38.100.21.67 10 11 127518 20121118182251
46.22.174.98 8 40 1385358 20121115114725
81.190.10.48 20 116 8486795 20121114223336
94.42.177.36 24 74 2721479 20121127103004
153.19.77.12 1 1 4111 20121123100926
94.42.141.26 17 85 3905743 20121116100101
95.40.135.39 9 41 75774486 20121114153046
83.6.25.161 1 1 12455 20121125145018
79.173.27.55 14 49 18942144 20121114160055
194.246.16.14 8 39 1419020 20121115120738
171.25.183.254 11 42 2524103 20121119084443
150.254.212.166 17 74 2371450 20121122104243
95.49.18.3 5 35 2029022 20121115091746
85.221.165.178 10 44 2154476 20121116113802
150.70.172.107 1 2 107632 20121114105636
37.31.1.250 2 2 234388 20121114211246
80.244.139.120 9 47 1742889 20121114201650
83.22.145.139 6 37 1315933 20121127211419
217.212.230.14 3 9 929483 20121130224722
216.55.181.145 1 1 3463 20121121003452
153.19.67.20 31 86 2342287 20121122112214
37.30.7.73 1 1 12511 20121124212209
77.112.242.128 5 31 1005664 20121122140908
89.69.94.170 4 26 860852 20121118130018
216.55.161.64 1 1 3841 20121121003454
83.8.229.233 7 33 1254697 20121114215715
150.70.64.209 2 4 226305 20121114105657
46.205.81.36 4 26 860860 20121115093800
150.70.75.38 2 3 51526 20121114105519
79.185.6.197 9 44 3506622 20121128105736
91.238.216.1 21 63 24607520 20121121164054
83.11.222.184 11 47 5963890 20121118211740
212.122.207.14 4 25 850181 20121115101037
150.254.203.33 1 22 700239 20121121144015
89.191.175.5 7 38 1449098 20121119082237
216.55.183.234 1 1 3225 20121121003453
206.225.94.45 1 1 3781 20121121003451
194.145.225.15 24 80 2767797 20121115101313
83.20.244.2 7 40 1382107 20121119072656
31.62.189.97 12 47 2257397 20121126091808
62.29.176.91 4 26 851915 20121114125652
82.145.210.191 8 92 1955641 20121115195344
213.192.66.1 23 107 77020667 20121119082357
46.169.28.95 4 15 4616134 20121120104956
37.31.127.30 11 20 13422876 20121114211209
89.230.77.207 10 43 1395146 20121119073737
83.11.151.203 16 51 9020922 20121119214159
78.8.136.200 9 41 2147067 20121115204611
89.68.158.55 8 35 1368427 20121114090004
62.121.119.96 4 26 860860 20121114183836
217.149.63.65 1 1 12511 20121118165512
188.147.165.69 10 38 1304431 20121114104209
195.206.127.24 5 27 855841 20121119123040
81.219.57.250 4 26 1487098 20121124095203
89.73.169.25 9 36 4519105 20121119234432
END_VISITOR

# Date - Pages - Hits - Bandwidth - Visits
BEGIN_DAY 18
20121113 64 190 1872012 1
20121114 314 1263 166363277 34
20121115 196 940 128518909 21
20121116 74 322 19177903 8
20121117 14 63 2242277 2
20121118 59 229 12323498 7
20121119 248 981 181761755 18
20121120 47 226 85146369 4
20121121 137 475 32585696 21
20121122 53 208 4855047 6
20121123 5 26 861853 3
20121124 35 113 34623144 4
20121125 18 59 1751529 5
20121126 49 208 8455346 7
20121127 288 1094 10609017 8
20121128 349 1136 10403765 5
20121129 15 63 3803296 4
20121130 127 255 737719491 5
END_DAY

# Session range - Number of visits
BEGIN_SESSION 7
1h+ 3
5mn-15mn 18
15mn-30mn 11
30s-2mn 33
2mn-5mn 25
0s-30s 70
30mn-1h 3
END_SESSION

# URL - Pages - Bandwidth - Entry - Exit
# The 10 first Pages must be first (order not required for others)
BEGIN_SIDER 66
/admin.php 577 2984933 1 3
/ 295 1251278 136 24
/stylesheets/font/museo500-regular-webfont.woff 118 5158384 0 3
/stylesheets/font/museo700-regular-webfont.woff 116 5080209 1 5
/stylesheets/font/museo_slab_300-webfont.woff 101 4938148 0 11
/images/uploads/Rehabilitacja_POChP_1.mp4 90 1234759877 0 8
/strony/o-programie 75 297186 2 14
/strony/dla-pacjentow-i-opiekunow 72 287709 3 13
/stylesheets/font/museo500-regular-webfont.eot 65 1809341 0 2
/stylesheets/font/museo700-regular-webfont.eot 56 2688070 2 8
/strony/zycie-z-pochp/ 3 12512 0 2
// 12 5690 0 0
/stylesheets/font/museo500-regular-webfont.ttf 2 102890 0 0
/strony/pacjenci-z-pochp 12 60236 0 1
/wyniki/db2ae542739cc96fbd5ab1a29ce6779e/ 1 2819 0 0
/images/uploads/Ksiazki_E_J_.pdf 3 1629327 2 2
/strony/system-opieki 15 74779 0 3
/elektroniczna_karta_pacjenta_logowanie 5 15742 1 1
/brak_wynikow/20a7703f3cedcb5802574cd57b062fca/ 1 2862 0 0
/strony/czynniki_ryzyka_pochp%20 3 13547 0 1
/images/uploads/domowe_leczenie_tlenem.pdf 6 1388310 1 2
/wyniki/bbe7a2e5e1656a69843242bfdd805344/ 1 3198 0 0
/pomoc 10 36754 1 7
/brak_wynikow/3208848fd2d2b484a14c25119283359c/ 1 2910 0 0
/strony/palenie_choroba_zakazna 8 30423 1 2
/strony/jak_rozpoznac_pochp 17 63638 0 4
/strony/co_to_jest_spirometria 12 45871 0 1
/sdfsdf/ 1 4000 0 0
/strony/pochp 12 37730 0 0
/brak_wynikow/745ce1457753af4d57542a59cc60ce8f/ 1 2889 0 0
/ntent_edit 1 4270 0 0
/brak_wynikow/de0b7ffb25d888b6caaff4510d2de935/ 1 2794 0 0
/strony/palenie_papierosow 6 17995 1 1
/system/ 1 466 0 0
/strony/zycie-z-pochp 32 140921 0 8
/strony/dla-wolontariuszy 33 196307 0 2
/strony/rehabilitacja 54 166676 1 0
/strony/bibioteka 24 71270 2 5
/brak_wynikow/6e69ef7d5c4851953752178630ecffd2/ 1 2725 0 0
/dfgdfg 2 4784 0 0
/brak_wynikow/cb4b44f0dbc8eb646486ee9992c9f81d/ 1 2722 0 0
/strony/spirometria 22 89829 2 3
/strony/co_to_jest_pochp 14 61693 1 4
/strony/leczenie_uzaleznienia 7 26267 0 0
/strony/null 10 46168 0 1
/strony/czynniki_ryzyka_pochp 12 49049 2 1
/system/index.php 11 75821 0 0
/brak_wynikow/c4c8cad7696a9b812886036e66197c48/ 1 2733 0 0
/brak_wynikow/0aa3dd22a931ac6e20dc074c4ca93cee/ 1 2928 0 0
/stylesheets/font/museo_slab_300-webfont.eot 52 2648355 0 6
/themes/third_party/nsm_tiny_mce/scripts/tiny_mce/plugins/media/media.htm 1 3917 0 0
/stylesheets/font/museo700-regular-webfont.ttf 2 102411 0 0
/strony/jak_rzucic 8 32940 0 1
/strony/edukacja 47 260002 1 7
/images/uploads/rehabilitacja_w_opiece_paliatywnej.pdf 3 848688 0 1
/strony/dlaczego_palenie_jest_zle 6 19431 0 1
/strony/undefined 3 13891 0 0
/brak_wynikow/f48c91c3072196556beee9ad34565b2b/ 1 2725 0 0
/wyniki/8dd6122c7ab702ff1add986a85fbcee0/ 1 2921 0 0
/strony/do_kogo_sie_zwrocic 18 54155 1 2
/stylesheets/font/museo_slab_300-webfont.ttf 2 114780 0 0
/strony/jak_zapobiegac 14 55810 1 2
/strony/rejestr_lekarzy 6 18370 0 1
/strony/ 1 4485 0 0
/index.php 1 4344 0 0
/themes/third_party/nsm_tiny_mce/scripts/tiny_mce/plugins/advimage/image.htm 1 2824 0 0
END_SIDER
