AWSTATS DATA FILE 6.9 (build 1.925)
# If you remove this file, all statistics for date 201306 will be lost/reset.

# Position (offset in bytes) in this file of beginning of each section for
# direct I/O access. If you made changes somewhere in this file, you should
# also remove completely the MAP section (AWStats will rewrite it at next
# update).
BEGIN_MAP 27
POS_GENERAL 1864                
POS_TIME 2544                
POS_VISITOR 17108               
POS_DAY 36474               
POS_DOMAIN 3479                
POS_LOGIN 3715                
POS_ROBOT 3870                
POS_WORMS 4539                
POS_EMAILSENDER 4670                
POS_EMAILRECEIVER 4813                
POS_SESSION 37320               
POS_SIDER 37532               
POS_FILETYPES 4948                
POS_OS 5350                
POS_BROWSER 5517                
POS_SCREENSIZE 6262                
POS_UNKNOWNREFERER 6336                
POS_UNKNOWNREFERERBROWSER 6967                
POS_ORIGIN 7443                
POS_SEREFERRALS 7590                
POS_PAGEREFS 7816                
POS_SEARCHWORDS 8369                
POS_KEYWORDS 12240               
POS_MISC 2207                
POS_ERRORS 15254               
POS_CLUSTER 3571                
POS_SIDER_404 15380               
END_MAP

# LastLine    = Date of last record processed - Last record line number in last log - Last record offset in last log - Last record signature value
# FirstTime   = Date of first visit for history file
# LastTime    = Date of last visit for history file
# LastUpdate  = Date of last update - Nb of parsed records - Nb of parsed old records - Nb of parsed new records - Nb of parsed corrupted - Nb of parsed dropped
# TotalVisits = Number of visits
# TotalUnique = Number of unique visitors
# MonthHostsKnown   = Number of hosts known
# MonthHostsUnKnown = Number of hosts unknown
BEGIN_GENERAL 8
LastLine 20130628001121 352 71824 67056432926
FirstTime 20130601004641
LastTime 20130628000049
LastUpdate 20130628002435 352 0 352 0 0
TotalVisits 564                 
TotalUnique 424                 
MonthHostsKnown 0                   
MonthHostsUnknown 505                 
END_GENERAL

# Misc ID - Pages - Hits - Bandwidth
BEGIN_MISC 10
QuickTimeSupport 0 0 0
JavaEnabled 0 0 0
JavascriptDisabled 0 0 0
PDFSupport 0 0 0
WindowsMediaPlayerSupport 0 0 0
AddToFavourites 0 65 0
RealPlayerSupport 0 0 0
TotalMisc 0 0 0
DirectorSupport 0 0 0
FlashSupport 0 0 0
END_MISC

# Hour - Pages - Hits - Bandwidth - Not viewed Pages - Not viewed Hits - Not viewed Bandwidth
BEGIN_TIME 24
0 90 247 7803007 88 99 1988022
1 104 271 7939077 133 142 862292
2 73 116 2793303 126 129 636369
3 40 40 519502 104 108 773370
4 30 54 1454794 96 111 1056644
5 79 168 4047804 132 137 1814064
6 60 101 3657123 58 62 289598
7 70 129 3030203 115 116 1064862
8 139 431 21251018 80 88 373470
9 167 411 182318898 117 125 926415
10 260 945 323915026 78 86 988131
11 248 741 96450578 137 145 1069703
12 240 922 116226546 99 103 611446
13 136 521 90656578 105 109 860097
14 215 654 19859955 98 104 1103393
15 198 644 39903165 101 118 1447787
16 168 593 22333199 65 70 414784
17 172 674 27356520 87 101 831153
18 196 662 31195749 51 55 531807
19 149 541 20008006 102 105 1249442
20 209 781 224850010 111 112 1012131
21 201 689 196034270 111 116 851171
22 151 570 21026502 86 89 692275
23 116 367 50818468 128 141 894553
END_TIME

# Domain - Pages - Hits - Bandwidth
# The 10 first Pages must be first (order not required for others)
BEGIN_DOMAIN 1
ip 3511 11272 1515449301
END_DOMAIN

# Cluster ID - Pages - Hits - Bandwidth
BEGIN_CLUSTER 0
END_CLUSTER

# Login - Pages - Hits - Bandwidth - Last visit
# The 10 first Pages must be first (order not required for others)
BEGIN_LOGIN 0
END_LOGIN

# Robot ID - Hits - Bandwidth - Last visit - Hits on robots.txt
# The 10 first Hits must be first (order not required for others)
BEGIN_ROBOT 14
googlebot 909 6266999 20130628001121 357
bot[+:,\.\;\/\\-] 612 6606045 20130628000500 157
[+:,\.\;\/\\-]bot 397 4897456 20130627232155 186
robot 166 692477 20130624221447 0
yandex 155 1080588 20130627052108 41
turnitinbot 67 346360 20130619025707 6
msnbot\-media 38 1807307 20130627223421 19
exabot 29 117765 20130625021220 12
spider 15 208104 20130624115502 5
no_user_agent 8 86965 20130627005053 0
ia_archiver 2 28482 20130622100941 1
surveybot 3 18948 20130618115713 1
unknown 2 18448 20130627201640 2
crawl 8 52581 20130627032234 2
END_ROBOT

# Worm ID - Hits - Bandwidth - Last visit
# The 5 first Hits must be first (order not required for others)
BEGIN_WORMS 0
END_WORMS

# EMail - Hits - Bandwidth - Last visit
# The 20 first Hits must be first (order not required for others)
BEGIN_EMAILSENDER 0
END_EMAILSENDER

# EMail - Hits - Bandwidth - Last visit
# The 20 first hits must be first (order not required for others)
BEGIN_EMAILRECEIVER 0
END_EMAILRECEIVER

# Files type - Hits - Bandwidth - Bandwidth without compression - Bandwidth after compression
BEGIN_FILETYPES 17
css 469 2188562 0 0
ttf 58 2746368 0 0
woff 632 32425887 0 0
php 1438 17554190 0 0
mp4 104 966550245 0 0
html 319 1496355 0 0
jpg 1361 14811342 0 0
gz 25 188801788 0 0
eot 254 8518094 0 0
png 2971 167012565 0 0
pdf 124 41132022 0 0
ashx 2 8434 0 0
js 1194 14476916 0 0
jpeg 41 16388876 0 0
Unknown 547 2602434 0 0
gif 1725 38472645 0 0
svg 8 262578 0 0
END_FILETYPES

# OS ID - Hits
BEGIN_OS 11
winlong 961
winxp 3906
symbian 76
winnt 10
linux 624
winvista 238
macosx 275
winunknown 26
win2003 108
Unknown 48
win2008 5000
END_OS

# Browser ID - Hits
BEGIN_BROWSER 48
msie6.0 74
firefox20.0 192
firefox15.0 34
firefox4.0.1 1
firefox10.0 10
chrome 2320
firefox7.0 8
firefox2.0.0.1 2
epiphany 2
firefox8.0 25
firefox18.0 90
msie8.0 1105
firefox13.0.1 37
firefox6.0.1 27
msie7.0 206
firefox16.0 211
firefox9.0.1 75
msie9.0 315
firefox3.6.10 1
Unknown 37
firefox11.0 64
firefox17.0 160
opera 1073
firefox3.6.25 91
firefox13.0 35
firefox21.0 3255
firefox3.6.2 21
msie5.5 10
firefox7.0.1 17
firefox12.0 164
nokia 1
firefox3.5.5 26
mozilla 48
firefox14.0.1 80
firefox22.0 44
firefox3.6.28 16
msie10.0 614
firefox6.0 8
firefox2.0 3
firefox3.6.3 1
firefox3.6.22 8
firefox19.0 1
firefox10.0.2 38
firefox3.0.19 8
safari 676
firefox15.0.1 16
firefox3.6.8 1
firefox3.6.13 21
END_BROWSER

# Screen size - Hits
BEGIN_SCREENSIZE 0
END_SCREENSIZE

# Unknown referer OS - Last visit date
BEGIN_UNKNOWNREFERER 7
Mozilla/5.0_(en-us)_AppleWebKit/534.14_(KHTML,_like_Gecko;_Google_Wireless_Transcoder)_Chrome/9.0.597_Safari/534.14 20130609204129
facebookexternalhit/1.1_(_http://www.facebook.com/externalhit_uatext.php) 20130605200054
Nokia2630/2.0_(03.82)_Profile/MIDP-2.1_Configuration/CLDC-1.1 20130621191024
BlackBerry9000/4.6.0.167_Profile/MIDP-2.0_Configuration/CLDC-1.1_VendorID/102_ips-agent 20130610185716
Xenu_Link_Sleuth/1.3.8 20130628000049
GG_PeekBot_1.0_(_http://gg.pl/_http://info.gadu-gadu.pl/praca_) 20130622205136
rarely_used 20130605140515
END_UNKNOWNREFERER

# Unknown referer Browser - Last visit date
BEGIN_UNKNOWNREFERERBROWSER 6
facebookexternalhit/1.1_(_http://www.facebook.com/externalhit_uatext.php) 20130605200054
BlackBerry9000/4.6.0.167_Profile/MIDP-2.0_Configuration/CLDC-1.1_VendorID/102_ips-agent 20130610185716
iGetter/2_(Macintosh;_U;_PPC_Mac_OS_X;_en) 20130627204418
Xenu_Link_Sleuth/1.3.8 20130628000049
GG_PeekBot_1.0_(_http://gg.pl/_http://info.gadu-gadu.pl/praca_) 20130622205136
rarely_used 20130605140515
END_UNKNOWNREFERERBROWSER

# Origin - Pages - Hits 
BEGIN_ORIGIN 6
From0 169 226
From1 0 0
From2 358 387
From3 45 46
From4 2939 10613
From5 0 0
END_ORIGIN

# Search engine referers ID - Pages - Hits
BEGIN_SEREFERRALS 7
google 325 354
search 10 10
onetpl 5 5
mywebsearch 1 1
wp 3 3
ask 13 13
yahoo 1 1
END_SEREFERRALS

# External page referers - Pages - Hits
# The 10 first Pages must be first (order not required for others)
BEGIN_PAGEREFS 11
http://vjs.zencdn.net/c/video-js.swf 23 23
http://www.delta-search.com 5 5
http://www.ptchp.org/pt/komunikaty/news/661.html 4 4
http://a.pimw.pl 2 2
http://www.bing.com/search 2 2
http://www.yasni.pl/show_image.php 2 3
http://poczta.onet.pl/index.html 2 2
http://osrodekzdrowiawskale.pl/category/6/ 2 2
http://www.facebook.com/l.php 1 1
http://www.holasearch.com 1 1
http://www.foto.seokatalog.co.uk 1 1
END_PAGEREFS

# Search keyphrases - Number of search
# The 10 first number of search must be first (order not required for others)
BEGIN_SEARCHWORDS 97
pochp 63
rehabilitacja+oddechowa 6
pochp+rehabilitacja 4
www.pochp.eu 4
www.rejestrpochp. 3
poradnia+dlt+ostr%c3%b3w+wlkp 3
pochp+forum 3
badanie+spiro 3
edukacja+pacjenta+z+pochp 3
forum+pochp 2
jakie+s%c4%85+korzy%c5%9bci+z+dlt 1
program+usprawniania+pacjenta 1
ciekawo%c5%9b%c4%87+i+mi%c5%82o%c5%9b%c4%87+to+%c5%bcycie.+%c5%9bmier%c4%87+to+nuda+i+brak+uczu%c4%87.+nuda+i+brak+uczu%c4%87+najbardziej+zagra%c5%bcaj%c4%85+dzieciom+osobom+starym+i+ludziom+przewlekle+chorym.+zdrowi+doro%c5%9bli!+nie+lekcewa%c5%bccie+tej+wiadomo%c5%9bci.+tamci+naprawd%c4%99+po+trochu+si%c4%99+od+tego+zapadaj%c4%85.+mog%c4%85+po+cichu+umrze%c4%87+na+waszych+oczach+je%c5%9bli+tutaj+na+ziemi+ich+nie+przytrzymacie. 1
dr+wanda+setto 1
ryzyko+rozwoju+pochp 1
spirometria+w+kontroli+pochp 1
poradnia+alergologiczna+ostr%c3%b3w+wlkp 1
objawy+pochp+-+kaszel 1
poradnia+domowego+leczenia+tlenem+warszawa 1
www.pochpeu 1
opiekun+ludzi+starszych+ksiazki+na+temat 1
wolontariat+hospicyjny+ksi%c4%85%c5%bcki 1
tolerancja+wysi%c5%82kowa+cz%c4%99sto%c5%9b%c4%87+oddech%c3%b3w+pdf 1
jak+rozpoznac+pochp 1
rokowania+przy+pochp 1
przewlek%c5%82a+obturacyjna+choroba+p%c5%82uc 1
modele+usprawnianai+w+pochp 1
poradnia+dlt+w+ostrowie 1
jestem+chora+na+pochp+i+nie+moge+rzucic+palenia 2
wskaz%c3%b3wki+piel%c4%99gnacyjne+dla+os%c3%b3b+z+pochp+chomikuj 1
tematy+wolontariatu 1
obci%c4%85%c5%bcenie+progowe+trening+fizyczny 1
wskazanie+do+bezwzgl%c4%99dnego+leczenia+tlenem 1
%c4%87wiczenia+na+pochp 1
pochp+stan+wiedzy 1
sie%c4%87+kontakt%c3%b3w+spo%c5%82ecznych+u+pacjent%c3%b3w+zpochp 1
spirometria+dla+kogo 1
krejci-badowicz 1
raport+pielegniarski+o+chorym+z+zaostrzeniem+pochp 2
adresy+plac%c3%b3wek+pochp 1
podr\xc4\x99cznik+wolontariusza+hospicyjnego+pdf 1
pochp+zwiekszenie+tlenu+niebezpieczne 1
pochp+%c4%87wiczenia+oddechowe 1
rehabilitacja+pacjenta+z+pochp 1
niewydolno%c5%9b%c4%87+oddechowa+wskazanie+bezwzgl%c4%99dne+tlen 1
polskiej+wersji+kwestionariusza+szpitala+%c5%9awi%c4%99tego+jerzego 1
paleniefajki.apochp 1
katarzyna+krejci-+badowicz 1
skale+dusznosci+przy+pochp 1
%c4%87wiczenia+oddechowe+w+rehabilitacji 1
poradnia+leczenia+tlenem+warszawa 2
mie%c5%9bnie+oddechowe+rehabilitacja 1
wolontariusze+opieka+nad+chorymi 2
leczenie+uzale%c5%bcnie%c5%84+od+palenia+papieros%c3%b3w 1
stopie%c5%84+duszno%c5%9bci+w+pochp 1
edukacja+w+pochp 1
plan+edukacji+pacjenta+z+pochp 1
dlaczego+palenie+jest+z%c5%82e 1
pochp+rehabilitracja 1
kwestionariusz+oddechowy+szpitala+%c5%9bw+jerzego 1
wwwpochp 1
obecnosc+wolontariuszy+jest+bardzo+wazna 1
kinezyterapia+w+wieku+podesz%c5%82ym+pdf 1
interpretacja+spirometri+astma+pochp 1
lidia+werachowska 1
pochp+edukacja 1
leczenie+pochp+inhalatorem-forum 1
krakowiak+piotr+filetype+pdf 1
zespo%c5%82y+domowego+leczenia+tlenem+warszawa 1
poradnia+domowego+leczenia+tlenem+%c5%82%c3%b3d%c5%bc 1
pochp+leczenie+tlenem 1
osrodek+domowego+leczenia+tlenem+bartoszyce 1
ksi%c4%85%c5%bcki+na+temat+wolontariatu 1
wolontariat+ksiazki 1
www.pochp%3beu 1
fizjoterapia+w+pochp+%c4%87wiczenia+unoszenia 1
tematy+wolontariacie 1
pochp+-+%c4%87wiczenia+oddechowe 1
rozpoznanie+pochp 1
postepowanie+rehabilitacyjne+pochp 1
domowe+leczenie+tlenem+gda%c5%84sk 1
czy%2fjest%2fmozliwa%2frehabilitacja%2fpacjenta%2fz%2frespiratorem 1
wolontariat+i+wolontariusze+ksi%c4%85%c5%bcki 1
rezerwy+oddechowe 1
historia+wolontariatu+publikacja 1
chronic+hypoxemic+disease+przewlek\xc5\x82a+choroba 1
czynniki+ryzyka+pochp 2
tytu%c5%82y+ksi%c4%85%c5%bcek+wspieraj%c4%85cych+osoby+przewlekle+chore 1
towarzystwo+pochp 1
%c4%87wiczenia+przy+pochp 1
pochp+tworzenie+ankiety 1
pochp+-zaostrzenie 1
przyczyny+rozwoju+pochp 1
jak+przeciwdzia%c5%82a%c4%87+pochp 1
literatura+o+wolontariacie 1
domowe+leczenie+tlenem+warszawa 2
poliglobulia+pdf 1
END_SEARCHWORDS

# Search keywords - Number of search
# The 10 first number of search must be first (order not required for others)
BEGIN_KEYWORDS 237
pochp 113
rehabilitacja 12
tlenem 11
poradnia 9
z 9
w 8
leczenia 7
na 7
i 7
oddechowa 7
czynniki 2
chronic 1
inhalatorem-forum 1
pacjent%c3%b3w 1
nie 4
program 1
katarzyna 1
kogo 1
ludzi 1
edukacji 1
bezwzgl%c4%99dnego 1
plan 1
lekcewa%c5%bccie 1
umrze%c4%87 1
opieka 2
wolontariacie 2
przewlekle 2
rozwoju 2
kinezyterapia 1
nad 2
www.pochpeu 1
s%c4%85 1
os%c3%b3b 1
postepowanie 1
mog%c4%85 1
spo%c5%82ecznych 1
wanda 1
przewlek%c5%82a 1
- 2
ostrowie 1
temat 2
zaostrzeniem 2
obci%c4%85%c5%bcenie 1
publikacja 1
skale 1
rehabilitacyjne 1
ziemi 1
pacjenta 6
korzy%c5%9bci 1
zapadaj%c4%85. 1
alergologiczna 1
kontroli 1
jerzego 2
rozpoznac 1
oczach 1
od 2
tej 1
kaszel 1
jakie 1
historia 1
naprawd%c4%99 1
kontakt%c3%b3w 1
paleniefajki.apochp 1
mie%c5%9bnie 1
u 1
rokowania 1
rozpoznanie 1
cz%c4%99sto%c5%9b%c4%87 1
krakowiak 1
ich 1
pdf 5
piel%c4%99gnacyjne 1
ksiazki 2
edukacja 5
raport 2
objawy 1
-zaostrzenie 1
domowe 3
stan 1
filetype 1
palenia 3
%c5%9awi%c4%99tego 1
www.pochp%3beu 1
cichu 1
astma 1
rzucic 2
uczu%c4%87. 1
czy%2fjest%2fmozliwa%2frehabilitacja%2fpacjenta%2fz%2frespiratorem 1
sie%c4%87 1
dusznosci 1
zpochp 1
jestem 2
setto 1
%c5%9bw 1
papieros%c3%b3w 1
badowicz 1
wolontariat 3
rehabilitracja 1
zespo%c5%82y 1
stopie%c5%84 1
plac%c3%b3wek 1
p%c5%82uc 1
oddechowy 1
domowego 4
tolerancja 1
piotr 1
o 3
zagra%c5%bcaj%c4%85 1
hospicyjny 1
tematy 2
bardzo 1
przy 3
trening 1
wazna 1
niewydolno%c5%9b%c4%87 1
bezwzgl%c4%99dne 1
%c5%9bmier%c4%87 1
bartoszyce 1
wlkp 4
wolontariusza 1
www.pochp.eu 4
po 2
dla 2
osrodek 1
ryzyko 1
literatura 1
osobom 1
wieku 1
kwestionariusza 1
lidia 1
podesz%c5%82ym 1
tlenu 1
disease 1
%c5%bcycie. 1
spirometri 1
wolontariuszy 1
dzieciom 1
obturacyjna 1
tamci 1
towarzystwo 1
przewlek\xc5\x82a 1
obecnosc 1
z%c5%82e 1
dlaczego 1
ankiety 1
duszno%c5%9bci 1
gda%c5%84sk 1
uczu%c4%87 1
jak 2
do 1
fizjoterapia 1
wersji 1
mi%c5%82o%c5%9b%c4%87 1
forum 5
wiadomo%c5%9bci. 1
%c4%87wiczenia 6
to 2
tutaj 1
przeciwdzia%c5%82a%c4%87 1
ryzyka 2
przyczyny 1
trochu 1
warszawa 6
opiekun 1
%c5%82%c3%b3d%c5%bc 1
badanie 3
podr\xc4\x99cznik 1
dr 1
krejci-badowicz 1
si%c4%99 1
starszych 1
pielegniarski 2
wysi%c5%82kowa 1
hypoxemic 1
unoszenia 1
palenie 1
chora 2
choroba 2
chorymi 2
adresy 1
wskaz%c3%b3wki 1
kwestionariusz 1
modele 1
waszych 1
jest 2
spirometria 2
ludziom 1
niebezpieczne 1
leczenie 6
wspieraj%c4%85cych 1
oddechowe 5
chomikuj 1
osoby 1
przytrzymacie. 1
dlt 5
polskiej 1
wiedzy 1
wwwpochp 1
krejci- 1
poliglobulia 1
chore 1
zdrowi 1
moge 2
wolontariusze 3
starym 1
ksi%c4%85%c5%bcek 1
najbardziej 1
zwiekszenie 1
chorym. 1
brak 2
progowe 1
www.rejestrpochp. 3
tworzenie 1
interpretacja 1
szpitala 2
wolontariatu 3
usprawniania 1
ksi%c4%85%c5%bcki 3
tytu%c5%82y 1
ciekawo%c5%9b%c4%87 1
usprawnianai 1
je%c5%9bli 1
wskazanie 2
chorym 2
hospicyjnego 1
nuda 2
uzale%c5%bcnie%c5%84 1
tlen 1
spiro 3
oddech%c3%b3w 1
rezerwy 1
doro%c5%9bli! 1
fizyczny 1
rehabilitacji 1
ostr%c3%b3w 4
werachowska 1
tego 1
END_KEYWORDS

# Errors - Hits - Bandwidth
BEGIN_ERRORS 4
403 5 2324
302 28 21144
301 25 13124
404 102 77862
END_ERRORS

# URL with 404 errors - Hits - Last URL referer
BEGIN_SIDER_404 37
/robots.txt 19 -
/images/map.jpg 1 -
/apple-touch-icon.png 1 -
/strony/adresy-placowek-prowadzcych-domowe-leczenie-tlenem-dlt 2 -
/forum/ 3 -
/images/uploads/lek.med._Katarzyna_Krejci-Badowicz.jpeg 1 -
/forum/faq.php 20 http://pochp.eu/forum/faq.php
/forum/feed.php 6 -
/strony/dla-pacjentow-i-opiekunow 1 -
/strony/spirometria 1 -
/images/uploads/Ksiazki_E_J_.pdf 2 http://www.google.pl/url
/strony/leczenie_uzaleznienia 1 -
/strony/adresy-placowek-realizujcych-projekt 3 -
/mapa/uniwersyteckie-centrum-kliniczne-w-gdasku 1 -
/strony/czynniki_ryzyka_pochp 1 -
/stylesheets/style.css 1 -
/images/uploads/domowe_leczenie_tlenem.pdf 2 http://www.google.com/url
/helpdesk@connectmedica.com 1 -
/strony/edukacja 2 http://www.google.pl/url
/apple-touch-icon-precomposed.png 1 -
/forum/viewtopic.php 7 -
/mapa/samodzielny-publiczny-zakad-opieki-zdrowotnej-w-tarnowie 1 -
/images/uploads/rehabilitacja_w_opiece_paliatywnej.pdf 6 -
/mapa/poradnia-domowego-leczenia-tlenem 1 -
/strony/do_kogo_sie_zwrocic 1 -
/images/bg_people.png 1 http://www.google.com.mt/blank.html
/mapa/sp-zoz 1 -
/strony/jak_zapobiegac 2 https://www.google.pl/
/forum/memberlist.php 1 -
/mapa/orodek-domowego-leczenia-tlenem 2 -
/forum/index.php 1 -
/strony/o-programie 2 -
/strony/pochp 1 -
/strony/polityka-prywatnoci-i-wykorzystywania-plikow-cookies-w-serwisach-internetow 1 -
/strony/palenie_papierosow 1 -
/mapa/sp-csk 1 -
/strony/zycie-z-pochp 2 -
END_SIDER_404

# Host - Pages - Hits - Bandwidth - Last visit date - [Start date of last visit] - [Last page of last visit]
# [Start date of last visit] and [Last page of last visit] are saved only if session is not finished
# The 10 first Hits must be first (order not required for others)
BEGIN_VISITOR 505
46.246.20.248 1073 1073 13599629 20130619200337
5.9.124.103 104 104 1195688 20130620093854
194.242.62.91 95 243 3196922 20130621111530
91.238.134.14 61 61 500639 20130615034748
81.163.8.183 55 203 4546036 20130612134538
153.19.72.253 54 133 4429788 20130611050126
188.126.69.253 40 40 459880 20130620160411
153.19.102.13 40 177 144474860 20130618080539
178.210.216.140 39 39 549130 20130626150344
94.185.85.171 32 32 476816 20130609141629
195.150.232.40 1 1 282896 20130625111545
89.71.83.141 4 27 868218 20130603000908
69.58.178.56 10 10 117685 20130610185724
83.30.28.24 4 24 636584 20130617164947
83.27.24.82 1 1 11182 20130603020039
178.43.134.77 2 19 543895 20130621125729
217.67.217.241 6 33 1250027 20130607161940
89.68.108.211 0 1 33705 
5.172.254.38 0 1 53551 
87.206.240.53 0 3 736933 
88.156.15.106 5 32 1223177 20130623211913
217.132.30.60 18 18 188209 20130610104455
5.172.254.251 0 2 16224 
178.43.140.157 1 1 282896 20130603175705
79.191.79.183 6 34 1322526 20130616111613
213.108.8.35 3 21 595988 20130624151412
83.20.88.180 4 27 1494390 20130610104258
46.204.94.217 1 1 282896 20130605101422
77.254.140.120 0 1 196213 
83.17.22.228 2 21 609034 20130620075205
188.123.195.198 3 22 597953 20130616163833
188.33.81.13 10 41 1232152 20130623185032
31.61.140.124 2 24 1394168 20130605122031
150.70.97.124 1 1 12149 20130604223319
83.9.132.127 2 19 543674 20130623180755
89.68.235.77 4 27 868221 20130605143744
81.190.153.28 2 25 671915 20130615144232
89.69.103.102 7 33 9575612 20130624215053
89.71.168.20 9 44 1604219 20130623121441
89.228.230.199 5 33 1215955 20130626164303
78.8.232.250 8 41 1430168 20130601130305
31.13.97.117 0 1 9331 
83.11.124.42 1 1 282896 20130619200618
5.172.254.108 0 1 16841 
150.70.97.117 0 2 17374 
89.174.64.90 0 1 196213 
31.183.3.20 7 42 1394519 20130605120016
79.187.241.107 3 22 597805 20130626103339
88.89.141.233 12 60 1895057 20130624195852
89.71.171.201 1 1 543109 20130615193717
79.184.155.168 5 33 1281331 20130625000056
79.186.9.201 0 1 196213 
83.8.195.163 1 1 282896 20130602160524
87.205.235.172 1 1 543109 20130624162809
83.25.231.123 4 27 868217 20130614141839
37.109.93.89 2 22 640113 20130603232151
89.79.157.150 5 37 1448502 20130605234905
65.55.213.33 3 9 26203 20130627130848
83.10.113.75 4 26 866487 20130601143230
77.254.74.131 4 26 867644 20130627152850
79.184.171.121 1 1 282896 20130621223642
89.71.125.99 2 21 774374 20130622083746
83.23.240.171 0 3 300399 
83.26.249.35 9 43 1401558 20130627190533
93.154.129.3 0 17 512926 
83.14.78.54 15 54 7633315 20130604082533
193.34.3.1 5 37 1448509 20130615001655
194.88.225.85 4 26 866498 20130625224237
5.172.254.238 0 1 1596 
89.230.153.61 1 1 282896 20130620085008
77.85.219.105 2 2 28604 20130628000049 20130628000049 /
178.37.116.3 1 1 282896 20130609164527
79.191.62.190 2 2 8674 20130611223231
46.112.127.120 7 42 1394524 20130605200010
81.168.254.14 4 27 868228 20130627163139
5.172.254.66 0 3 18799 
89.76.59.46 3 26 1399380 20130603183934
46.112.77.11 2 19 543893 20130610215759
176.107.112.89 1 1 282896 20130620231243
83.7.25.208 0 1 196213 
178.248.30.132 2 2 22190 20130612135831
217.153.24.178 2 2 547371 20130606181644
94.254.195.58 1 1 493 20130618232347
91.221.122.209 22 96 1575415 20130613190003
69.84.207.246 13 13 157742 20130624211810
95.83.253.122 2 20 578155 20130601004643
83.21.132.128 0 1 54322 
46.171.10.201 8 54 1736429 20130619165727
86.84.157.22 4 26 866487 20130605051315
37.31.27.88 2 19 543894 20130615222855
212.182.57.11 3 21 595964 20130610151654
93.154.137.234 13 48 1485904 20130615142106
82.177.218.241 1 1 543109 20130611162825
89.72.176.40 4 26 866489 20130609205125
178.33.122.74 1 1 13850 20130603183907
83.12.145.76 3 21 586907 20130610101204
95.160.10.65 2 20 545419 20130609133247
87.206.8.245 4 26 866488 20130601065800
77.115.117.143 1 1 231385 20130626160805
89.79.150.96 9 54 2670975 20130601221944
91.205.89.90 5 37 1448506 20130606153314
176.105.136.64 0 1 196213 
188.124.183.79 9 57 1389349 20130602101149
84.10.93.104 9 48 1702412 20130605221635
83.25.144.137 7 33 1456434 20130604154036
77.91.63.182 2 2 1086218 20130619101533
212.91.21.1 6 33 1259048 20130604190650
83.29.98.139 5 28 735094 20130611125012
89.71.144.93 1 1 282896 20130626194516
5.172.254.95 0 1 5979 
46.204.54.245 4 27 868225 20130626173303
46.165.208.105 9 9 73289 20130614092937
94.40.12.178 9 44 1402592 20130610211925
89.67.136.201 2 20 535676 20130624141902
150.70.75.34 0 2 99964 
89.79.27.2 4 26 866490 20130604210336
153.19.67.200 9 58 2057374 20130627101540
94.254.147.145 7 40 1208012 20130605091110
83.6.178.245 8 43 1463260 20130606145517
193.107.212.94 5 28 872319 20130612201627
93.105.78.46 4 27 857984 20130603220538
62.61.35.25 9 28 34215838 20130619210606
89.65.25.171 3 21 596346 20130611183211
83.23.37.87 0 1 196213 
83.220.97.4 0 1 61731 
109.107.23.14 1 1 282896 20130614210544
95.160.109.208 1 1 231385 20130604183810
5.172.254.46 0 1 10415 
193.200.241.28 2 2 25881 20130620190244
83.27.25.3 1 1 11189 20130621205447
89.65.79.172 9 44 1403277 20130607230902
5.172.254.198 0 1 209055 
212.67.136.145 8 47 1570698 20130620111322
5.172.254.81 0 1 7529 
91.145.188.6 7 41 1392790 20130608181116
83.3.228.185 3 22 1152140 20130613112639
83.28.243.215 0 1 61731 
54.226.10.44 1 1 14358 20130623174600
194.181.156.214 3 21 596345 20130604120321
46.232.135.85 9 46 1188053 20130606110428
37.30.175.117 1 1 282896 20130608125057
62.233.246.100 7 26 61047 20130617122346
95.160.145.86 8 42 1462642 20130605222948
89.25.148.83 20 67 77226162 20130611214433
83.22.100.5 4 27 859280 20130601194949
89.72.220.76 1 1 231385 20130621114135
78.8.147.141 0 1 184212 
31.11.191.208 22 88 43125785 20130609092239
95.41.15.196 4 26 866492 20130611203016
89.71.238.2 1 1 231385 20130606155503
83.26.30.60 4 23 634850 20130616195559
5.172.254.102 0 1 84125 
83.27.42.246 1 1 282896 20130608103640
87.205.194.236 4 22 600646 20130625105652
89.77.101.234 4 26 866489 20130609185138
89.72.12.87 11 42 20063010 20130624153000
77.254.243.229 1 1 282896 20130617185519
87.156.243.223 1 1 543109 20130609163729
213.238.115.67 2 21 638755 20130615000343
80.51.149.167 1 1 282896 20130613155830
65.55.215.240 1 6 51159 20130604122029
80.48.31.221 1 1 231385 20130620205304
94.254.145.39 3 21 595689 20130617135856
83.7.186.63 3 21 586916 20130613180748
81.15.203.49 1 1 282896 20130607192255
5.172.254.62 1 1 4186 20130626165611
83.5.202.2 1 1 282896 20130625162055
77.252.190.228 1 1 231385 20130625131745
79.190.74.10 3 22 597719 20130626103904
178.42.160.124 1 1 282896 20130624072206
89.206.36.193 17 70 1033940 20130610102302
46.204.32.4 7 49 908456 20130616172215
89.200.215.150 13 48 1484907 20130620104258
46.112.2.129 1 1 282896 20130610191505
5.172.254.161 1 5 94325 20130626165559
93.175.65.123 4 26 866488 20130603172735
5.172.254.85 1 3 59066 20130626165634
5.172.254.105 0 2 15172 
89.65.107.173 8 42 1397226 20130624015830
84.10.206.117 3 23 655799 20130615074926
79.163.12.222 2 22 583679 20130603195305
78.8.243.22 1 1 282896 20130620085814
87.206.130.216 7 42 1459350 20130614173919
153.19.191.28 17 97 2745811 20130620171551
83.10.84.63 1 1 282896 20130625211115
95.40.95.18 19 61 12373508 20130607183640
151.248.45.79 8 44 1466108 20130603190031
89.69.116.50 1 1 231385 20130610163517
83.238.198.54 2 23 646732 20130619212641
176.227.162.7 1 1 282896 20130620120446
95.215.233.5 4 24 636584 20130617172132
31.186.85.110 4 4 749844 20130626020421
46.204.66.190 1 1 4391 20130616093059
176.57.141.193 1 1 12062 20130610174750
89.77.86.213 3 22 1152149 20130611140410
195.205.11.162 1 1 282896 20130604163246
89.231.122.116 1 1 231385 20130607152709
65.55.213.47 1 6 52732 20130624044949
131.253.24.37 1 6 51263 20130624105014
89.74.69.40 8 43 1398476 20130606200327
109.243.147.20 1 1 282896 20130614225449
178.42.11.141 1 1 282896 20130613124601
78.46.139.35 4 26 857536 20130617221528
5.172.254.51 0 1 15682 
66.249.81.192 7 31 1686503 20130617141320
150.70.75.38 3 4 374788 20130622112613
109.196.46.147 5 27 861788 20130608212111
5.172.254.33 1 2 38553 20130626165631
213.184.21.226 1 1 543109 20130603175426
62.148.66.17 4 27 868214 20130611202137
178.235.110.200 7 41 1392196 20130621133308
5.172.254.187 0 1 52311 
199.30.24.86 4 17 435009 20130606001001
78.131.130.130 4 24 647604 20130612141420
109.243.191.203 4 26 866491 20130610191650
109.241.72.76 10 39 16020140 20130619161935
5.172.254.79 1 3 63303 20130626165634
91.123.176.53 10 44 1471484 20130613093638
91.188.112.1 4 26 866490 20130627120705
79.186.229.189 1 1 282896 20130613154410
95.160.116.170 18 55 56402428 20130621214651
109.199.6.80 2 21 628435 20130625134107
83.8.33.82 1 1 282896 20130622112333
38.100.21.63 10 11 143118 20130611014420
46.112.73.9 4 27 868222 20130612200840
78.8.118.125 10 46 1474934 20130605155742
62.141.197.75 2 23 637025 20130603164329
91.229.89.218 8 51 1972880 20130608212918
62.21.30.11 4 27 859271 20130608231129
83.29.245.9 9 44 1403189 20130607221909
89.228.147.95 1 1 282896 20130617002733
89.68.236.250 0 1 196213 
46.112.1.242 5 31 1185736 20130601122239
83.242.74.208 8 42 1378407 20130626170533
5.172.254.217 0 1 64520 
83.18.2.218 8 47 687047 20130601174010
195.72.148.205 1 1 282896 20130610164336
83.20.73.251 1 1 282896 20130615135829
5.172.254.117 0 1 5020 
5.172.254.168 0 3 59532 
5.172.254.88 0 1 36100 
77.255.84.123 8 43 1446038 20130606171929
85.219.181.144 7 45 1438038 20130602011818
150.70.97.116 1 1 297177 20130622112430
83.6.249.160 1 1 543109 20130620183046
89.68.208.8 0 1 68086 
178.183.132.93 1 1 543109 20130625194918
83.27.15.249 1 1 11182 20130601092735
87.204.253.8 9 43 1401566 20130625225105
77.112.176.163 2 2 581915 20130610092542
62.102.171.151 1 1 231385 20130603100707
79.187.3.30 9 42 2276851 20130617083602
85.255.255.43 5 37 1448513 20130625190622
89.231.209.64 11 49 1738983 20130624022821
62.69.234.242 4 16 530348 20130601124051
78.88.84.58 1 1 282896 20130602112619
94.230.19.194 0 1 196213 
89.68.210.185 9 43 2214733 20130620141946
83.22.136.101 4 27 868221 20130606004450
89.71.100.14 2 19 543894 20130619093422
85.221.180.179 1 1 282896 20130621065144
77.89.76.202 1 1 282896 20130610121825
83.10.53.33 3 21 596221 20130617203257
213.156.114.227 4 29 875676 20130621113221
83.23.241.51 0 1 54322 
81.168.149.21 11 47 1526009 20130601165843
178.36.249.43 4 27 868222 20130612233310
178.42.193.32 4 36 1332253 20130605101541
149.156.180.135 1 1 282896 20130623010732
5.172.254.200 0 1 15682 
87.206.108.83 1 1 282896 20130619104130
89.228.225.221 1 1 282896 20130616224802
5.173.24.123 4 27 868220 20130603185258
94.251.239.52 4 26 866488 20130605162829
46.204.30.86 2 25 795614 20130611111739
46.134.231.33 1 1 543109 20130608095450
131.253.24.63 1 6 50850 20130604123320
83.18.105.106 7 41 1392793 20130603151123
94.254.211.156 15 85 849090 20130613123116
89.76.14.137 1 1 543109 20130612174237
89.67.201.245 29 51 189668274 20130627204423
150.70.97.119 0 1 96721 
83.4.185.206 1 1 493 20130618130920
178.235.220.159 7 42 1394536 20130611142323
89.79.41.109 1 1 282896 20130611003056
37.130.24.25 2 21 581953 20130604223221
31.13.97.114 0 1 9331 
5.173.2.210 3 21 1150412 20130610103036
83.9.167.189 4 27 857978 20130601174554
158.66.1.38 20 68 2799486 20130626124259
95.49.62.62 0 1 196213 
89.68.246.70 1 1 543109 20130627082714
79.189.126.146 4 27 868224 20130614094553
46.113.239.233 1 1 62214 20130625133907
94.254.208.144 0 1 54322 
87.207.125.120 4 26 866492 20130624111947
5.172.254.29 0 2 18363 
89.171.168.178 1 1 282896 20130620204357
80.50.144.66 13 47 14318315 20130626123444
83.31.74.108 10 44 1385509 20130624115208
194.181.0.38 2 22 583684 20130626125505
95.49.104.120 19 90 3028594 20130607012010
109.243.241.12 2 19 543721 20130616231447
212.244.241.20 12 58 2813472 20130624135831
89.77.144.225 2 21 609031 20130601222516
88.156.200.132 0 1 643129 
62.122.124.206 0 1 59081 
150.70.97.122 1 1 51073 20130604223342
83.5.40.67 4 23 634854 20130617162759
65.55.213.61 1 1 135386 20130602202620
89.69.180.38 6 34 1285567 20130605212741
93.105.212.217 2 2 294576 20130625132200
80.55.119.226 8 42 1431318 20130606192456
81.190.59.199 0 1 59081 
89.74.222.91 4 27 868220 20130603202713
217.153.99.42 3 21 595641 20130609231301
194.242.62.89 4 22 644497 20130620090004
178.214.136.29 7 28 713887 20130616210744
88.199.38.41 1 1 282896 20130602190420
31.13.97.113 0 1 196264 
62.61.35.197 13 16 128343574 20130604094738
81.190.14.196 10 45 1718739 20130626190501
212.106.31.190 8 46 1634518 20130609150905
93.179.213.85 1 1 493 20130618154754
89.230.71.245 4 30 881844 20130605202805
89.78.205.222 4 29 723669 20130616201622
213.189.36.102 4 27 868223 20130626151842
37.59.16.73 0 1 48244 
77.115.65.22 2 21 638379 20130605195348
5.172.254.61 0 1 196213 
83.25.17.232 0 1 196213 
80.51.175.75 7 41 1392792 20130605100449
83.22.237.163 1 1 282896 20130605202525
131.253.24.40 1 6 51651 20130615223003
46.134.158.159 1 1 282896 20130625162433
195.66.86.253 1 1 231385 20130603121152
65.55.213.62 1 6 51650 20130616122856
217.113.145.12 4 23 866354 20130619094225
79.184.194.189 0 1 59081 
5.172.254.153 0 1 100880 
93.159.11.90 3 4 14905 20130603151930
87.204.77.146 1 1 543109 20130619212502
46.105.114.127 1 2 57541 20130606085808
46.171.96.89 4 39 1089080 20130617110427
65.55.215.235 1 6 51285 20130625025206
5.172.254.56 0 1 5979 
188.147.134.44 8 42 1378661 20130624214342
195.117.219.10 1 1 543109 20130610211521
83.11.130.58 7 41 1392795 20130616112504
95.40.91.123 2 2 565792 20130605210127
79.184.238.104 7 40 1391006 20130604153649
83.3.48.169 1 1 282896 20130611145616
31.0.128.136 4 26 866488 20130601164506
91.94.102.239 1 1 543109 20130610232227
85.221.166.189 1 1 282896 20130612223323
159.205.233.201 1 1 282896 20130615213615
153.19.191.226 16 34 3677320 20130619101454
5.172.254.28 0 1 16841 
82.139.19.216 2 21 581958 20130612202751
83.31.33.80 1 1 493 20130618140653
91.192.88.20 1 1 282896 20130610211053
5.172.254.250 0 1 4758 
89.73.79.220 1 1 282896 20130624213503
89.174.75.40 1 1 282896 20130613124332
83.31.141.70 1 1 543109 20130613201007
46.112.106.230 2 2 8589 20130613200120
178.37.83.102 1 1 282896 20130603104350
195.82.165.21 2 21 628434 20130605102657
5.172.254.146 0 1 1574 
77.253.24.171 8 34 75616137 20130611134021
188.33.237.85 0 1 68086 
141.0.9.76 8 35 1057364 20130622202013
83.6.214.217 2 2 282896 20130627132723
89.77.4.141 0 1 196213 
109.207.153.136 1 1 282896 20130617194501
80.94.22.102 0 1 68086 
79.139.34.162 3 22 598007 20130608154914
89.73.64.8 7 42 1394529 20130619184008
83.134.142.128 8 43 1464358 20130601205022
77.89.65.59 1 1 493 20130618205345
94.158.225.22 10 45 1421916 20130617170540
79.184.153.113 4 27 868223 20130625144428
5.173.248.98 10 40 1584819 20130604221851
89.78.176.121 2 21 669030 20130609203812
46.238.103.180 4 26 866503 20130626171438
178.42.250.49 1 1 282896 20130610215733
83.4.241.158 23 89 2676546 20130603193111
109.107.9.133 4 23 646144 20130601122846
188.146.157.218 0 1 1731 
83.28.153.49 0 1 196213 
213.158.217.199 1 6 246445 20130610083519
89.161.21.182 1 1 282896 20130605120858
83.22.237.241 0 1 68086 
83.22.18.210 1 1 282896 20130603212303
5.172.254.37 0 1 7529 
79.191.238.242 12 48 1515901 20130627111533
31.60.110.87 4 27 868218 20130604223939
82.2.134.7 4 23 601864 20130609165052
95.160.52.10 4 23 869342 20130603075032
91.238.134.188 17 17 133284 20130610140024
31.13.100.114 0 1 196264 
94.42.177.36 12 57 1739943 20130621014131
31.6.141.200 8 45 689032 20130612131504
80.53.181.242 4 27 868219 20130606173153
83.18.46.246 8 43 1433651 20130612123833
31.13.97.116 1 1 4431 20130605200046
193.200.216.8 9 43 2151262 20130621155401
78.30.95.171 0 7 71711 
80.50.137.138 2 20 601828 20130611132714
83.25.83.225 1 1 543109 20130614165831
83.218.105.53 1 1 282896 20130620194913
195.117.71.146 9 38 1310529 20130620165424
31.11.196.248 11 48 76925295 20130607100437
87.248.72.106 2 20 545446 20130621085917
5.172.254.74 0 1 14494 
212.160.204.14 3 26 1399388 20130610224602
5.172.254.179 0 3 75782 
198.50.102.148 1 1 4298 20130609195651
178.37.148.105 1 1 231385 20130615113142
5.172.254.15 1 6 357572 20130626165519
89.229.197.6 1 1 282896 20130605092136
178.33.178.15 4 4 60428 20130611081329
164.127.98.180 1 1 543109 20130626220307
212.87.25.105 1 1 493 20130618195103
217.153.57.104 4 4 574935 20130627070700
178.159.164.81 1 1 282896 20130625153419
84.205.1.172 9 42 1973233 20130614101836
199.30.24.85 6 16 701389 20130621183140
5.172.254.196 2 3 104224 20130626165527
79.185.37.248 0 1 196213 
164.127.224.230 0 1 14437 
37.225.43.0 1 26 864256 20130624165620
37.30.18.134 0 1 196213 
193.19.165.124 3 27 750562 20130611055953
5.172.254.110 1 2 38680 20130626165555
77.115.73.99 0 1 196213 
83.22.238.176 10 45 1473197 20130607132928
125.255.54.174 0 1 54322 
5.172.254.34 0 2 12548 
178.181.159.163 2 15 349827 20130610083525
83.19.46.230 6 23 39511539 20130623232224
195.205.186.182 7 43 1461776 20130626201706
89.69.245.48 1 1 543109 20130608113436
78.9.71.120 4 23 680826 20130619144128
83.26.148.86 1 1 231385 20130625085354
82.112.159.157 4 26 857543 20130603100604
5.172.254.1 1 2 152085 20130626165559
195.145.115.254 6 32 1181768 20130604084239
213.158.217.1 1 1 282896 20130614150110
85.193.198.208 1 1 231385 20130614194530
77.254.40.28 1 1 543109 20130606171453
91.240.197.82 17 72 78461349 20130615210647
91.197.15.34 2 2 28931 20130622205136
87.205.160.200 1 1 543109 20130608191007
5.172.254.130 1 5 75580 20130626165559
91.146.196.160 23 41 63518730 20130615112408
149.156.13.125 1 1 231385 20130621134301
79.187.135.197 2 19 533947 20130614100401
131.253.24.68 1 6 51455 20130625111642
91.218.218.236 15 84 12149574 20130626182245
31.13.100.112 0 1 196264 
5.172.254.253 0 1 1922 
164.126.155.115 1 1 282896 20130624100821
89.76.87.28 7 41 1392504 20130613123417
91.207.126.3 4 29 925291 20130625205116
217.17.34.238 1 1 282896 20130610102208
78.31.154.247 7 33 77496828 20130617113056
77.223.212.200 10 48 1526875 20130606230223
178.235.211.114 2 20 545999 20130613041759
46.112.216.55 12 47 1415300 20130609084115
46.165.208.108 9 9 73265 20130601164846
213.241.91.58 4 26 866488 20130607125328
37.190.229.186 5 28 872554 20130604212540
89.78.152.106 4 27 868218 20130605222753
93.95.93.37 9 43 1400033 20130623105056
194.247.62.28 1 1 231385 20130623232616
199.30.24.232 6 15 408998 20130625051356
83.3.137.114 13 64 655365 20130610081907
91.192.88.53 4 27 868218 20130602140059
95.160.41.233 7 44 1449261 20130615172425
83.11.235.168 7 41 1392591 20130613124013
89.76.101.40 1 1 282896 20130609163420
5.172.254.76 0 1 53551 
83.22.140.11 1 1 493 20130618142835
31.174.0.208 8 41 1250110 20130623151509
88.89.141.38 4 24 737687 20130619182250
78.8.79.246 0 2 263520 
83.5.158.101 3 22 586448 20130606092717
94.42.177.34 9 64 2307786 20130613232026
89.75.167.202 4 24 636584 20130616212127
81.190.245.221 1 1 282896 20130624165501
178.43.53.88 1 1 543109 20130603161234
5.172.254.22 0 2 75044 
65.55.215.245 3 9 32959 20130625200754
5.172.254.219 0 1 10415 
193.107.213.164 24 78 7891629 20130617171204
151.248.43.112 1 1 543109 20130609190502
31.135.192.4 2 2 1086218 20130614065052
66.249.81.99 5 30 1030162 20130619114324
82.145.208.112 5 24 563912 20130623123459
212.33.79.2 1 1 493 20130618083231
77.255.69.141 4 27 859274 20130617214339
89.230.139.9 0 1 14437 
89.66.174.181 8 41 1394206 20130606140751
78.30.76.187 2 22 583691 20130614112115
END_VISITOR

# Date - Pages - Hits - Bandwidth - Visits
BEGIN_DAY 28
20130601 111 533 31970419 22
20130602 24 135 4937623 7
20130603 149 594 160871528 29
20130604 106 478 150579358 22
20130605 104 627 24477326 25
20130606 104 543 19053394 20
20130607 93 415 99438277 11
20130608 50 195 8801427 14
20130609 171 558 58539896 23
20130610 171 519 94856643 32
20130611 119 450 164860659 22
20130612 81 345 9558092 16
20130613 186 561 17557946 30
20130614 238 415 13475594 22
20130615 249 474 74539843 19
20130616 231 461 9928877 18
20130617 286 630 98093287 32
20130618 31 31 14543 22
20130619 219 406 44139415 34
20130620 178 378 12360447 28
20130621 152 499 67778917 14
20130622 26 136 14981533 7
20130623 63 302 48603406 12
20130624 103 472 44501703 20
20130625 59 285 11342349 22
20130626 131 563 32346798 28
20130627 75 266 197825699 12
20130628 1 1 14302 1
END_DAY

# Session range - Number of visits
BEGIN_SESSION 7
1h+ 18
5mn-15mn 18
0s-30s 432
30s-2mn 43
2mn-5mn 33
15mn-30mn 8
30mn-1h 11
END_SESSION

# URL - Pages - Bandwidth - Entry - Exit
# The 10 first Pages must be first (order not required for others)
BEGIN_SIDER 70
/forum/ucp.php 367 3619364 2 4
/forum/viewforum.php 310 2800572 0 0
/ 279 1207264 219 43
/stylesheets/font/museo500-regular-webfont.woff 263 13199819 1 61
/stylesheets/font/museo700-regular-webfont.woff 221 10992680 0 27
/forum/faq.php 202 7612755 78 2
/forum/index.php 171 1544646 1 13
/forum/posting.php 164 1405015 0 72
/forum/feed.php 155 101612 0 1
/stylesheets/font/museo_slab_300-webfont.woff 148 8233388 0 33
/admin.php 12 63323 0 0
/stylesheets/font/museo500-regular-webfont.svg 3 96876 0 0
/strony/adresy-placowek-prowadzcych-domowe-leczenie-tlenem-dlt 15 65873 12 2
/forum/viewforum.php%3Ff=1+Kto+przegl\xc4\x85da+forum+informacje&ct=clnk 1 14202 1 0
// 1 533 0 0
/forum/ 38 285420 12 2
/mapa/wojewodzki-zespo-zakadow-opieki-zdrowotnej 1 4194 1 1
/stylesheets/font/museo700-regular-webfont.svg 3 94722 0 2
/stylesheets/font/museo500-regular-webfont.ttf 23 1109346 7 6
/strony/pacjenci-z-pochp 8 60917 4 3
/stylesheets/font/museo500-regular-webfont.eot 92 2673065 0 10
/strony/dla-pacjentow-i-opiekunow 18 71045 0 0
/strony/adresy-placowek-realizujcych-projekt 26 123467 7 4
/images/uploads/Ksiazki_E_J_.pdf 33 16937362 28 29
/kontakt 4 30537 0 0
/strony/system-opieki 9 52974 1 6
/elektroniczna_karta_pacjenta_logowanie 7 30750 0 0
/pochp.tar.gz 25 188801788 0 1
/images/uploads/domowe_leczenie_tlenem.pdf 17 3933471 17 16
/strony/czynniki_ryzyka_pochp%20 13 64445 0 8
/ExcelExportService.ashx 2 8434 1 1
/strony/palenie_choroba_zakazna 1 4245 0 0
/strony/jak_rozpoznac_pochp 16 65616 5 5
/strony/co_to_jest_spirometria 18 75462 4 7
/stylesheets/font/museo700-regular-webfont.eot 86 3027298 0 17
/images/uploads/Rehabilitacja_POChP_1.mp4 104 966550245 0 20
/forum/memberlist.php 8 69321 4 2
/mapa/orodek-domowego-leczenia-tlenem1 3 12515 3 0
/strony/o-programie 30 139527 2 4
/strony/pochp 28 104417 4 1
/forum/search.php 1 2676 0 0
/strony/palenie_papierosow 2 6724 0 0
/strony/zycie-z-pochp 33 173597 15 10
/mapa/sp-csk 2 8520 0 0
/strony/dla-wolontariuszy 14 102060 5 1
/strony/rehabilitacja 48 166302 3 2
/strony/bibioteka 7 33805 0 3
/strony/spirometria 19 72163 4 2
/strony/co_to_jest_pochp 46 208072 3 6
/mapa/uniwersyteckie-centrum-kliniczne-w-gdasku 18 111596 5 5
/strony/leczenie_uzaleznienia 7 30689 2 3
/strony/czynniki_ryzyka_pochp 36 160089 9 3
/strony/null 18 89781 0 2
/brak_wynikow/81a09bd162c34b83cb9d9a940fe64f60/ 1 3138 0 0
/stylesheets/font/museo_slab_300-webfont.eot 76 2817731 0 9
/stylesheets/font/museo700-regular-webfont.ttf 23 1033903 2 7
/strony/jak_rzucic 9 40304 2 1
/strony/edukacja 27 185530 10 9
/images/uploads/rehabilitacja_w_opiece_paliatywnej.pdf 74 20261189 70 70
/stylesheets/font/museo_slab_300-webfont.svg 2 70980 0 1
/strony/dlaczego_palenie_jest_zle 3 11041 1 1
/forum/cron.php 25 9281 0 9
/mapa/poradnia-domowego-leczenia-tlenem 4 16836 4 0
/strony/do_kogo_sie_zwrocic 7 24053 0 1
/stylesheets/font/museo_slab_300-webfont.ttf 12 603119 1 3
/strony/rejestr_lekarzy 1 3571 0 0
/strony/jak_zapobiegac 34 147647 9 10
/mapa/orodek-domowego-leczenia-tlenem 11 46160 5 1
/forum/style.php 23 325625 0 0
/strony/polityka-prywatnoci-i-wykorzystywania-plikow-cookies-w-serwisach-internetow 3 43708 0 1
END_SIDER
